%YAML 1.1
%TAG !u! tag:unity3d.com,2011:
--- !u!1045 &1
EditorBuildSettings:
  m_ObjectHideFlags: 0
  serializedVersion: 2
  m_Scenes:
  - enabled: 1
    path: Assets/Scenes/MenuScene.unity
    guid: 48044ef6b3bf4c54fbc683c20b5e458c
  - enabled: 1
    path: Assets/Scenes/GameScene.unity
    guid: ec40a43fbaa233c4ca0d27c6a5e564ad
  m_configObjects: {}
